vim: set ts=4 sw=4 et ai filetype=hybrid :


key-reserved         = 0
key-esc              = 1
key-1                = 2
key-2                = 3
key-3                = 4
key-4                = 5
key-5                = 6
key-6                = 7
key-7                = 8
key-8                = 9
key-9                = 10
key-0                = 11
key-minus            = 12
key-equal            = 13
key-backspace        = 14
key-tab              = 15
key-q                = 16
key-w                = 17
key-e                = 18
key-r                = 19
key-t                = 20
key-y                = 21
key-u                = 22
key-i                = 23
key-o                = 24
key-p                = 25
key-leftbrace        = 26
key-rightbrace       = 27
key-enter            = 28
key-leftctrl         = 29
key-a                = 30
key-s                = 31
key-d                = 32
key-f                = 33
key-g                = 34
key-h                = 35
key-j                = 36
key-k                = 37
key-l                = 38
key-semicolon        = 39
key-apostrophe       = 40
key-grave            = 41
key-leftshift        = 42
key-backslash        = 43
key-z                = 44
key-x                = 45
key-c                = 46
key-v                = 47
key-b                = 48
key-n                = 49
key-m                = 50
key-comma            = 51
key-dot              = 52
key-slash            = 53
key-rightshift       = 54
key-kpasterisk       = 55
key-leftalt          = 56
key-space            = 57
key-capslock         = 58
key-f1               = 59
key-f2               = 60
key-f3               = 61
key-f4               = 62
key-f5               = 63
key-f6               = 64
key-f7               = 65
key-f8               = 66
key-f9               = 67
key-f10              = 68
key-numlock          = 69
key-scrolllock       = 70
key-kp7              = 71
key-kp8              = 72
key-kp9              = 73
key-kpminus          = 74
key-kp4              = 75
key-kp5              = 76
key-kp6              = 77
key-kpplus           = 78
key-kp1              = 79
key-kp2              = 80
key-kp3              = 81
key-kp0              = 82
key-kpdot            = 83
key-zenkakuhankaku   = 85
key-102nd            = 86
key-f11              = 87
key-f12              = 88
key-ro               = 89
key-katakana         = 90
key-hiragana         = 91
key-henkan           = 92
key-katakanahiragana = 93
key-muhenkan         = 94
key-kpjpcomma        = 95
key-kpenter          = 96
key-rightctrl        = 97
key-kpslash          = 98
key-sysrq            = 99
key-rightalt         = 100
key-linefeed         = 101
key-home             = 102
key-up               = 103
key-pageup           = 104
key-left             = 105
key-right            = 106
key-end              = 107
key-down             = 108
key-pagedown         = 109
key-insert           = 110
key-delete           = 111
key-macro            = 112
key-min-interesting  = 113
key-mute             = 113
key-volumedown       = 114
key-volumeup         = 115
key-power            = 116
key-kpequal          = 117
key-kpplusminus      = 118
key-pause            = 119
key-scale            = 120
key-kpcomma          = 121
key-hanguel          = 122
key-hangeul          = 122
key-hanja            = 123
key-yen              = 124
key-leftmeta         = 125
key-rightmeta        = 126
key-compose          = 127
key-stop             = 128
key-again            = 129
key-props            = 130
key-undo             = 131
key-front            = 132
key-copy             = 133
key-open             = 134
key-paste            = 135
key-find             = 136
key-cut              = 137
key-help             = 138
key-menu             = 139
key-calc             = 140
key-setup            = 141
key-sleep            = 142
key-wakeup           = 143
key-file             = 144
key-sendfile         = 145
key-deletefile       = 146
key-xfer             = 147
key-prog1            = 148
key-prog2            = 149
key-www              = 150
key-msdos            = 151
key-coffee           = 152
key-screenlock       = 152
key-direction        = 153
key-cyclewindows     = 154
key-mail             = 155
key-bookmarks        = 156
key-computer         = 157
key-back             = 158
key-forward          = 159
key-closecd          = 160
key-ejectcd          = 161
key-ejectclosecd     = 162
key-nextsong         = 163
key-playpause        = 164
key-previoussong     = 165
key-stopcd           = 166
key-record           = 167
key-rewind           = 168
key-phone            = 169
key-iso              = 170
key-config           = 171
key-homepage         = 172
key-refresh          = 173
key-exit             = 174
key-move             = 175
key-edit             = 176
key-scrollup         = 177
key-scrolldown       = 178
key-kpleftparen      = 179
key-kprightparen     = 180
key-new              = 181
key-redo             = 182
key-f13              = 183
key-f14              = 184
key-f15              = 185
key-f16              = 186
key-f17              = 187
key-f18              = 188
key-f19              = 189
key-f20              = 190
key-f21              = 191
key-f22              = 192
key-f23              = 193
key-f24              = 194
key-playcd           = 200
key-pausecd          = 201
key-prog3            = 202
key-prog4            = 203
key-dashboard        = 204
key-suspend          = 205
key-close            = 206
key-play             = 207
key-fastforward      = 208
key-bassboost        = 209
key-print            = 210
key-hp               = 211
key-camera           = 212
key-sound            = 213
key-question         = 214
key-email            = 215
key-chat             = 216
key-search           = 217
key-connect          = 218
key-finance          = 219
key-sport            = 220
key-shop             = 221
key-alterase         = 222
key-cancel           = 223
key-brightnessdown   = 224
key-brightnessup     = 225
key-media            = 226
key-switchvideomode  = 227
key-kbdillumtoggle   = 228
key-kbdillumdown     = 229
key-kbdillumup       = 230
key-send             = 231
key-reply            = 232
key-forwardmail      = 233
key-save             = 234
key-documents        = 235
key-battery          = 236
key-bluetooth        = 237
key-wlan             = 238
key-uwb              = 239
key-unknown          = 240
key-video-next       = 241
key-video-prev       = 242
key-brightness-cycle = 243
key-brightness-zero  = 244
key-display-off      = 245
key-wimax            = 246
key-rfkill           = 247
key-micmute          = 248
key-ok               = 352
key-select           = 353
key-goto             = 354
key-clear            = 355
key-power2           = 356
key-option           = 357
key-info             = 358
key-time             = 359
key-vendor           = 360
key-archive          = 361
key-program          = 362
key-channel          = 363
key-favorites        = 364
key-epg              = 365
key-pvr              = 366
key-mhp              = 367
key-language         = 368
key-title            = 369
key-subtitle         = 370
key-angle            = 371
key-zoom             = 372
key-mode             = 373
key-keyboard         = 374
key-screen           = 375
key-pc               = 376
key-tv               = 377
key-tv2              = 378
key-vcr              = 379
key-vcr2             = 380
key-sat              = 381
key-sat2             = 382
key-cd               = 383
key-tape             = 384
key-radio            = 385
key-tuner            = 386
key-player           = 387
key-text             = 388
key-dvd              = 389
key-aux              = 390
key-mp3              = 391
key-audio            = 392
key-video            = 393
key-directory        = 394
key-list             = 395
key-memo             = 396
key-calendar         = 397
key-red              = 398
key-green            = 399
key-yellow           = 400
key-blue             = 401
key-channelup        = 402
key-channeldown      = 403
key-first            = 404
key-last             = 405
key-ab               = 406
key-next             = 407
key-restart          = 408
key-slow             = 409
key-shuffle          = 410
key-break            = 411
key-previous         = 412
key-digits           = 413
key-teen             = 414
key-twen             = 415
key-videophone       = 416
key-games            = 417
key-zoomin           = 418
key-zoomout          = 419
KEY-ZOOMRESET        = 420
key-wordprocessor    = 421
key-editor           = 422
key-spreadsheet      = 423
key-graphicseditor   = 424
key-presentation     = 425
key-database         = 426
key-news             = 427
key-voicemail        = 428
key-addressbook      = 429
key-messenger        = 430
key-displaytoggle    = 431
key-spellcheck       = 432
key-logoff           = 433
key-dollar           = 434
key-euro             = 435
key-frameback        = 436
key-frameforward     = 437
key-context-menu     = 438
key-media-repeat     = 439
key-10channelsup     = 440
key-10channelsdown   = 441
key-images           = 442
key-del-eol          = 448
key-del-eos          = 449
key-ins-line         = 450
key-del-line         = 451
key-fn               = 464
key-fn-esc           = 465
key-fn-f1            = 466
key-fn-f2            = 467
key-fn-f3            = 468
key-fn-f4            = 469
key-fn-f5            = 470
key-fn-f6            = 471
key-fn-f7            = 472
key-fn-f8            = 473
key-fn-f9            = 474
key-fn-f10           = 475
key-fn-f11           = 476
key-fn-f12           = 477
key-fn-1             = 478
key-fn-2             = 479
key-fn-d             = 480
key-fn-e             = 481
key-fn-f             = 482
key-fn-s             = 483
key-fn-b             = 484
key-brl-dot1         = 497
key-brl-dot2         = 498
key-brl-dot3         = 499
key-brl-dot4         = 500
key-brl-dot5         = 501
key-brl-dot6         = 502
key-brl-dot7         = 503
key-brl-dot8         = 504
key-brl-dot9         = 505
key-brl-dot10        = 506
key-numeric-0        = 512
key-numeric-1        = 513
key-numeric-2        = 514
key-numeric-3        = 515
key-numeric-4        = 516
key-numeric-5        = 517
key-numeric-6        = 518
key-numeric-7        = 519
key-numeric-8        = 520
key-numeric-9        = 521
key-numeric-star     = 522
key-numeric-pound    = 523
key-camera-focus     = 528
key-wps-button       = 529
key-touchpad-toggle  = 530
key-touchpad-on      = 531
key-touchpad-off     = 532
key-camera-zoomin    = 533
key-camera-zoomout   = 534
key-camera-up        = 535
key-camera-down      = 536
key-camera-left      = 537
key-camera-right     = 538
key-attendant-on     = 539
key-attendant-off    = 540
key-attendant-toggle = 541
key-lights-toggle    = 542
key-max              = 767
key-cnt              = 768
